Experiments with tf-idf #1
…
All are listed. The Stanford document is a little more vague. Even though term frequency is a simple tool, it has exposed some of the structure of the document. When using it to explore structure and aid in finding documents that would help with a search it counts and weights terms that are frequently used within a single document.

If we combine term frequency with inverse document frequency, we can expose structure across a set of documents. This next section will apply term frequency, inverse document frequency (tf-idf).

#
# create a single bag of words for term freq
bag_of_words <- rbind(df_stan_tidy, df_gasparini_tidy)
bag_of_words <- bag_of_words %>%
  bind_tf_idf(word, book, n)
#
# and sort
bag_of_words %>% arrange(desc(tf_idf))

## # A tibble: 1,331 x 6
##    word             n book           tf   idf  tf_idf
##    <chr>        <int> <chr>       <dbl> <dbl>   <dbl>
##  1 test            22 stanford  0.0180  0.693 0.0125 
##  2 mode            18 stanford  0.0148  0.693 0.0102 
##  3 ideate          14 stanford  0.0115  0.693 0.00795
##  4 testing         14 stanford  0.0115  0.693 0.00795
##  5 cognitive       23 gasparini 0.0112  0.693 0.00780
##  6 participants    17 gasparini 0.00831 0.693 0.00576
##  7 ideation        10 stanford  0.00820 0.693 0.00568
##  8 perspective     16 gasparini 0.00782 0.693 0.00542
##  9 conversation     9 stanford  0.00738 0.693 0.00511
## 10 empathize        9 stanford  0.00738 0.693 0.00511
## # ... with 1,321 more rows
…
